<?xml version="1.0" encoding="UTF-8" standalone="no"?>
<!-- Created with Inkscape (http://www.inkscape.org/) -->

<svg
   xmlns:dc="http://purl.org/dc/elements/1.1/"
   xmlns:cc="http://creativecommons.org/ns#"
   xmlns:rdf="http://www.w3.org/1999/02/22-rdf-syntax-ns#"
   xmlns:svg="http://www.w3.org/2000/svg"
   xmlns="http://www.w3.org/2000/svg"
   xmlns:sodipodi="http://sodipodi.sourceforge.net/DTD/sodipodi-0.dtd"
   xmlns:inkscape="http://www.inkscape.org/namespaces/inkscape"
   width="210mm"
   height="297mm"
   viewBox="0 0 210 297"
   version="1.1"
   id="svg8"
   inkscape:version="0.92.3 (2405546, 2018-03-11)"
   sodipodi:docname="logo.svg"
   inkscape:export-filename="C:\Users\popie\Desktop\FAC\GREENSPEAS\logo.png"
   inkscape:export-xdpi="96"
   inkscape:export-ydpi="96">
  <defs
     id="defs2" />
  <sodipodi:namedview
     id="base"
     pagecolor="#ffffff"
     bordercolor="#666666"
     borderopacity="1.0"
     inkscape:pageopacity="0.0"
     inkscape:pageshadow="2"
     inkscape:zoom="0.73831349"
     inkscape:cx="377.88826"
     inkscape:cy="522.74961"
     inkscape:document-units="mm"
     inkscape:current-layer="layer2"
     showgrid="false"
     inkscape:window-width="1827"
     inkscape:window-height="1046"
     inkscape:window-x="82"
     inkscape:window-y="-11"
     inkscape:window-maximized="1"
     showguides="false" />
  <metadata
     id="metadata5">
    <rdf:RDF>
      <cc:Work
         rdf:about="">
        <dc:format>image/svg+xml</dc:format>
        <dc:type
           rdf:resource="http://purl.org/dc/dcmitype/StillImage" />
        <dc:title></dc:title>
      </cc:Work>
    </rdf:RDF>
  </metadata>
  <g
     inkscape:label="terre"
     inkscape:groupmode="layer"
     id="layer1"
     style="display:inline"
     sodipodi:insensitive="true">
    <circle
       id="path4524"
       cx="105"
       cy="149.08643"
       r="85.280762"
       style="fill:#00a7ce;fill-opacity:1;stroke:#0000da;stroke-width:0;stroke-miterlimit:4;stroke-dasharray:none;stroke-opacity:1" />
    <path
       style="fill:#47e481;fill-opacity:1;stroke:none;stroke-width:0.26458332px;stroke-linecap:butt;stroke-linejoin:miter;stroke-opacity:1"
       d="m 175.38812,100.55593 -58.43737,-0.615128 c -15.73273,0.01529 -17.41796,23.968288 -0.73815,26.819678 l 70.90521,-1.0614 c -2.24306,-9.06114 -5.39904,-17.15013 -11.72969,-25.14315 z"
       id="path4610"
       inkscape:connector-curvature="0"
       sodipodi:nodetypes="ccccc" />
    <path
       style="fill:none;stroke:none;stroke-width:0.26458332px;stroke-linecap:butt;stroke-linejoin:miter;stroke-opacity:1"
       d="m 40.674613,94.035553 46.749891,-1.230259 -5.16709,30.264406 -58.06829,6.1513 1.476311,33.70913 48.472261,6.88946 13.286808,56.09987 -9.842079,4.92104 z"
       id="path4614"
       inkscape:connector-curvature="0" />
    <path
       style="fill:#47e481;fill-opacity:1;stroke:none;stroke-width:0.26458332px;stroke-linecap:butt;stroke-linejoin:miter;stroke-opacity:1"
       d="m 42.095981,128.17855 c -12.578357,5.18952 -4.971038,24.00281 -0.34797,23.31399 l 54.109359,0.17399 c 8.62739,-3.33697 11.32794,-19.30219 -1.391877,-23.66197 z"
       id="path4616"
       inkscape:connector-curvature="0"
       sodipodi:nodetypes="ccccc" />
    <path
       style="fill:#47e481;fill-opacity:1;stroke:none;stroke-width:0.26458332px;stroke-linecap:butt;stroke-linejoin:miter;stroke-opacity:1"
       d="m 87.506089,161.4097 c -19.909028,9.61519 -6.598172,29.3493 -1.391883,32.7092 l 43.670254,-0.69595 c 5.18301,10.93726 -1.39268,20.93383 -7.48135,30.96935 -3.27717,12.90435 11.20804,3.5227 21.05219,1.04391 32.98013,-15.25189 45.80202,-51.70996 45.75808,-65.59238 z"
       id="path4618"
       inkscape:connector-curvature="0"
       sodipodi:nodetypes="ccccccc" />
  </g>
  <g
     inkscape:groupmode="layer"
     id="layer4"
     inkscape:label="NUAGES OMBRE">
    <path
       style="fill:#52ce80;fill-opacity:1;stroke:none;stroke-width:0.26458332px;stroke-linecap:butt;stroke-linejoin:miter;stroke-opacity:1"
       d="m 180.8575,107.09527 -75.59652,0.26099 c -0.99851,2.77767 -1.70761,7.31687 -0.26098,9.91715 l 79.42419,-0.69594 z"
       id="path4694"
       inkscape:connector-curvature="0"
       sodipodi:nodetypes="ccccc" />
    <path
       style="fill:#1391ae;fill-opacity:1;stroke:none;stroke-width:0.99999994px;stroke-linecap:butt;stroke-linejoin:miter;stroke-opacity:1"
       d="m 468.19886,749.3425 -88.16777,17.8111 -199.03207,31.67151 c 8.22465,10.71567 21.08803,21.20895 36.98945,31.07164 l 226.53719,-0.65908 c 23.13514,-13.35358 51.61621,-73.13329 23.6732,-79.89517 z"
       transform="scale(0.26458333)"
       id="path4696"
       inkscape:connector-curvature="0"
       sodipodi:nodetypes="cccccc" />
    <path
       style="fill:#1391ae;fill-opacity:1;stroke:none;stroke-width:0.99999994px;stroke-linecap:butt;stroke-linejoin:miter;stroke-opacity:1"
       d="m 389.288,403.12616 c -35.31499,-3.44679 -42.71791,33.08097 -20.05562,40.77024 l 27.61723,-0.65812 c -4.99736,-14.86131 -1.64042,-26.0096 0.98633,-37.48242 z"
       transform="scale(0.26458333)"
       id="path4702"
       inkscape:connector-curvature="0"
       sodipodi:nodetypes="ccccc" />
  </g>
  <g
     inkscape:groupmode="layer"
     id="layer3"
     inkscape:label="NUAGES"
     style="display:inline">
    <path
       style="fill:#e0e0e0;fill-opacity:1;stroke:none;stroke-width:0.99999994px;stroke-linecap:butt;stroke-linejoin:miter;stroke-opacity:1"
       d="m 197.87891,624.5625 c -32.08476,0.004 -64.48102,3.68111 -76.22657,12.00586 -23.491087,16.64942 -9.86328,58.52344 -9.86328,58.52344 l -133.07031,1.70117 c -52.897241,-3.47624 -68.621849,105.10421 9.272811,105.02042 l 432.809579,-0.46555 c 83.72209,-16.26291 40.64924,-103.93556 9.91602,-102.96858 l -151.90218,-0.65697 c 0,0 14.42833,-50.39433 -6.57475,-63.12854 -10.50152,-6.36711 -42.27656,-10.03503 -74.36132,-10.03125 z"
       transform="scale(0.26458333)"
       id="path4653"
       inkscape:connector-curvature="0"
       sodipodi:nodetypes="scccsccccs" />
    <path
       style="display:inline;fill:#e0e0e0;fill-opacity:1;stroke:none;stroke-width:0.68677574px;stroke-linecap:butt;stroke-linejoin:miter;stroke-opacity:1"
       d="m 613.37305,297.21289 c -36.6875,0.21528 -75.99732,1.98462 -105.41407,5.49414 -48.60635,6.35079 -10.64228,40.3587 -7.10351,40.77539 l -102.87109,0.45899 c -45.89961,2.36209 -41.56,61.75211 -0.95704,61.67773 l 363.5586,-0.66602 c 44.09544,3.22474 50.77314,-55.80387 -2.43164,-57.57031 l -36.30274,-0.41797 c 3.73221,0.18558 33.13134,-34.56557 -6.58008,-43.26172 -11.89422,-4.47386 -54.7288,-6.76701 -101.89843,-6.49023 z"
       transform="scale(0.26458333)"
       id="path4653-8"
       inkscape:connector-curvature="0"
       sodipodi:nodetypes="scccsccccs" />
  </g>
  <g
     inkscape:groupmode="layer"
     id="layer5"
     inkscape:label="NUAGES REFLET">
    <path
       style="fill:#d5d5d5;fill-opacity:1;stroke:none;stroke-width:0.26458332px;stroke-linecap:butt;stroke-linejoin:miter;stroke-opacity:1"
       d="m 189.24891,80.354783 c 1.20837,6.302662 -6.54944,11.393678 -17.41197,16.065139 L 210,96.56918 c -1.97517,-1.695519 -2.54218,-3.74308 -8.1773,-4.523613 l -10.83281,-0.244454 c 5.29212,-3.55154 5.07111,-9.647045 -1.74098,-11.44633 z"
       id="path4708"
       inkscape:connector-curvature="0"
       sodipodi:nodetypes="cccccc" />
    <path
       style="fill:#d5d5d5;fill-opacity:1;stroke:none;stroke-width:0.26458332px;stroke-linecap:butt;stroke-linejoin:miter;stroke-opacity:1"
       d="m 38.450705,166.3372 c -6.207498,-0.26738 -12.853344,5.55207 -8.873183,17.5725 l -35.208186,0.4501 c -7.726485,-0.0142 -8.844247,5.03588 -10.804745,8.80969 l 62.367471,-0.38656 C 31.385177,184.91924 36.03498,175.54003 38.450705,166.3372 Z"
       id="path4710"
       inkscape:connector-curvature="0"
       sodipodi:nodetypes="cccccc" />
  </g>
  <g
     inkscape:groupmode="layer"
     id="layer2"
     inkscape:label="PETITS POIS"
     style="display:inline">
    <g
       transform="rotate(-11.042256,610.05857,661.19976)"
       id="g4546">
      <path
         inkscape:connector-curvature="0"
         id="path4537"
         transform="scale(0.26458333)"
         d="m 397.09375,69.751953 a 74.449134,74.449134 0 0 0 -74.44922,74.449217 74.449134,74.449134 0 0 0 74.44922,74.44922 74.449134,74.449134 0 0 0 74.44922,-74.44922 74.449134,74.449134 0 0 0 -74.44922,-74.449217 z"
         style="fill:#00d34f;fill-opacity:1;stroke:none;stroke-width:0;stroke-miterlimit:4;stroke-dasharray:none;stroke-opacity:1" />
      <path
         sodipodi:nodetypes="csscc"
         inkscape:connector-curvature="0"
         id="path4542"
         d="m 95.865782,24.539353 c 2.63504,-1.532375 3.545048,0.871474 2.765862,1.596871 -3.076873,2.864469 -5.611798,7.685184 -7.122959,12.337327 -0.268794,0.827489 -2.935458,1.041743 -2.915121,-1.746373 1.291559,-4.666616 3.523288,-8.831807 7.272218,-12.187825 z"
         style="fill:#8df5b4;fill-opacity:1;stroke:none;stroke-width:0.26458332px;stroke-linecap:butt;stroke-linejoin:miter;stroke-opacity:1" />
    </g>
    <g
       transform="rotate(-4.6307794,1470.632,-1323.799)"
       id="g4546-0">
      <path
         inkscape:connector-curvature="0"
         id="path4537-2"
         transform="scale(0.26458333)"
         d="m 397.09375,69.751953 a 74.449134,74.449134 0 0 0 -74.44922,74.449217 74.449134,74.449134 0 0 0 74.44922,74.44922 74.449134,74.449134 0 0 0 74.44922,-74.44922 74.449134,74.449134 0 0 0 -74.44922,-74.449217 z"
         style="fill:#00d34f;fill-opacity:1;stroke:none;stroke-width:0;stroke-miterlimit:4;stroke-dasharray:none;stroke-opacity:1" />
      <path
         sodipodi:nodetypes="csscc"
         inkscape:connector-curvature="0"
         id="path4542-5"
         d="m 95.865782,24.539353 c 2.63504,-1.532375 3.545048,0.871474 2.765862,1.596871 -3.076873,2.864469 -5.611798,7.685184 -7.122959,12.337327 -0.268794,0.827489 -2.935458,1.041743 -2.915121,-1.746373 1.291559,-4.666616 3.523288,-8.831807 7.272218,-12.187825 z"
         style="fill:#8df5b4;fill-opacity:1;stroke:none;stroke-width:0.26458332px;stroke-linecap:butt;stroke-linejoin:miter;stroke-opacity:1" />
    </g>
    <g
       transform="rotate(1.0600706,-11666.289,3778.8591)"
       id="g4546-1">
      <path
         inkscape:connector-curvature="0"
         id="path4537-5"
         transform="scale(0.26458333)"
         d="m 397.09375,69.751953 a 74.449134,74.449134 0 0 0 -74.44922,74.449217 74.449134,74.449134 0 0 0 74.44922,74.44922 74.449134,74.449134 0 0 0 74.44922,-74.44922 74.449134,74.449134 0 0 0 -74.44922,-74.449217 z"
         style="fill:#00d34f;fill-opacity:1;stroke:none;stroke-width:0;stroke-miterlimit:4;stroke-dasharray:none;stroke-opacity:1" />
      <path
         sodipodi:nodetypes="csscc"
         inkscape:connector-curvature="0"
         id="path4542-2"
         d="m 95.865782,24.539353 c 2.63504,-1.532375 3.545048,0.871474 2.765862,1.596871 -3.076873,2.864469 -5.611798,7.685184 -7.122959,12.337327 -0.268794,0.827489 -2.935458,1.041743 -2.915121,-1.746373 1.291559,-4.666616 3.523288,-8.831807 7.272218,-12.187825 z"
         style="fill:#8df5b4;fill-opacity:1;stroke:none;stroke-width:0.26458332px;stroke-linecap:butt;stroke-linejoin:miter;stroke-opacity:1" />
    </g>
    <g
       transform="rotate(72.581734,-75.482043,103.4274)"
       id="g4546-4">
      <path
         inkscape:connector-curvature="0"
         id="path4537-1"
         transform="scale(0.26458333)"
         d="m 397.09375,69.751953 a 74.449134,74.449134 0 0 0 -74.44922,74.449217 74.449134,74.449134 0 0 0 74.44922,74.44922 74.449134,74.449134 0 0 0 74.44922,-74.44922 74.449134,74.449134 0 0 0 -74.44922,-74.449217 z"
         style="fill:#00d34f;fill-opacity:1;stroke:none;stroke-width:0;stroke-miterlimit:4;stroke-dasharray:none;stroke-opacity:1" />
      <path
         sodipodi:nodetypes="csscc"
         inkscape:connector-curvature="0"
         id="path4542-20"
         d="m 90.034105,46.635124 c -1.107972,-2.839723 1.407402,-3.368386 2.00405,-2.486721 2.35606,3.481569 6.728516,6.729147 11.092195,8.939213 0.77617,0.39311 0.5769,3.060935 -2.17477,2.611155 -4.411821,-1.995318 -8.183312,-4.842297 -10.921475,-9.063647 z"
         style="fill:#8df5b4;fill-opacity:1;stroke:none;stroke-width:0.26458332px;stroke-linecap:butt;stroke-linejoin:miter;stroke-opacity:1" />
    </g>
    <g
       transform="translate(0.73800291,-6.8894614)"
       id="g4546-11">
      <path
         inkscape:connector-curvature="0"
         id="path4537-8"
         transform="scale(0.26458333)"
         d="m 397.09375,69.751953 a 74.449134,74.449134 0 0 0 -74.44922,74.449217 74.449134,74.449134 0 0 0 74.44922,74.44922 74.449134,74.449134 0 0 0 74.44922,-74.44922 74.449134,74.449134 0 0 0 -74.44922,-74.449217 z"
         style="fill:#00d34f;fill-opacity:1;stroke:none;stroke-width:0;stroke-miterlimit:4;stroke-dasharray:none;stroke-opacity:1" />
      <path
         sodipodi:nodetypes="csscc"
         inkscape:connector-curvature="0"
         id="path4542-9"
         d="m 95.865782,24.539353 c 2.63504,-1.532375 3.545048,0.871474 2.765862,1.596871 -3.076873,2.864469 -5.611798,7.685184 -7.122959,12.337327 -0.268794,0.827489 -2.935458,1.041743 -2.915121,-1.746373 1.291559,-4.666616 3.523288,-8.831807 7.272218,-12.187825 z"
         style="fill:#8df5b4;fill-opacity:1;stroke:none;stroke-width:0.26458332px;stroke-linecap:butt;stroke-linejoin:miter;stroke-opacity:1" />
    </g>
  </g>
  <path
     style="fill:#2fab37;fill-opacity:1;stroke:none;stroke-width:0.26458332px;stroke-linecap:butt;stroke-linejoin:miter;stroke-opacity:1"
     d="m 124.99445,27.819035 c 2.71118,10.946217 -6.56075,24.268145 -18.94601,22.882844 9.35384,0.772952 18.11218,-11.585317 18.94601,-22.882844 z"
     id="path4712"
     inkscape:connector-curvature="0"
     sodipodi:nodetypes="ccc" />
  <path
     style="fill:#2fab37;fill-opacity:1;stroke:none;stroke-width:0.26458332px;stroke-linecap:butt;stroke-linejoin:miter;stroke-opacity:1"
     d="m 57.87373,246.49829 c 6.403695,9.62987 0.983081,25.58182 -11.21179,28.15063 9.124343,-2.19957 13.96312,-17.16157 11.21179,-28.15063 z"
     id="path4712-5"
     inkscape:connector-curvature="0"
     sodipodi:nodetypes="ccc" />
  <path
     style="fill:#2fab37;fill-opacity:1;stroke:none;stroke-width:0.26458332px;stroke-linecap:butt;stroke-linejoin:miter;stroke-opacity:1"
     d="M 13.238305,139.09266 C 17.995854,149.31694 11.447167,164.1681 -0.97412451,165.18063 8.3545863,164.14772 14.583763,150.34073 13.238305,139.09266 Z"
     id="path4712-3"
     inkscape:connector-curvature="0"
     sodipodi:nodetypes="ccc" />
  <path
     style="fill:#2fab37;fill-opacity:1;stroke:none;stroke-width:0.26458332px;stroke-linecap:butt;stroke-linejoin:miter;stroke-opacity:1"
     d="m 191.76708,253.22435 c 2.5082,10.99449 -7.00861,24.1426 -19.36612,22.5284 9.33794,0.94588 18.32342,-11.24825 19.36612,-22.5284 z"
     id="path4712-6"
     inkscape:connector-curvature="0"
     sodipodi:nodetypes="ccc" />
  <path
     style="fill:#2fab37;fill-opacity:1;stroke:none;stroke-width:0.26458332px;stroke-linecap:butt;stroke-linejoin:miter;stroke-opacity:1"
     d="m 238.3344,138.96628 c 3.25979,10.79555 -5.32847,24.56814 -17.76784,23.80923 9.38093,0.30021 17.50486,-12.48403 17.76784,-23.80923 z"
     id="path4712-0"
     inkscape:connector-curvature="0"
     sodipodi:nodetypes="ccc" />
</svg>
